-- Merging decision tree log ---
manifest
ADDED from D:\Freelance Dev\ecomapp2version-main\android\app\src\main\AndroidManifest.xml:1:1-53:12
INJECTED from D:\Freelance Dev\ecomapp2version-main\android\app\src\main\AndroidManifest.xml:1:1-53:12
INJECTED from D:\Freelance Dev\ecomapp2version-main\android\app\src\main\AndroidManifest.xml:1:1-53:12
INJECTED from D:\Freelance Dev\ecomapp2version-main\android\app\src\main\AndroidManifest.xml:1:1-53:12
MERGED from D:\Freelance Dev\ecomapp2version-main\android\app\src\main\AndroidManifest.xml:1:1-53:12
MERGED from [:shared_preferences] D:\Freelance Dev\ecomapp2version-main\build\shared_preferences\intermediates\library_manifest\debug\AndroidManifest.xml:2:1-7:12
MERGED from [:sqflite] D:\Freelance Dev\ecomapp2version-main\build\sqflite\intermediates\library_manifest\debug\AndroidManifest.xml:2:1-7:12
MERGED from [:path_provider] D:\Freelance Dev\ecomapp2version-main\build\path_provider\intermediates\library_manifest\debug\AndroidManifest.xml:2:1-7:12
MERGED from [androidx.fragment:fragment:1.1.0] C:\Users\Omar Gabriel\.gradle\caches\transforms-2\files-2.1\0986d0d74b8a2c7da8161f6370fc7744\fragment-1.1.0\AndroidManifest.xml:17:1-24:12
MERGED from [androidx.activity:activity:1.0.0] C:\Users\Omar Gabriel\.gradle\caches\transforms-2\files-2.1\615cab8ad6393a9c868d48761bbea666\activity-1.0.0\AndroidManifest.xml:17:1-24:12
MERGED from [androidx.viewpager:viewpager:1.0.0] C:\Users\Omar Gabriel\.gradle\caches\transforms-2\files-2.1\28d99d5113324aa067757f8ca41a426f\viewpager-1.0.0\AndroidManifest.xml:17:1-22:12
MERGED from [androidx.loader:loader:1.0.0] C:\Users\Omar Gabriel\.gradle\caches\transforms-2\files-2.1\e1bbce6b0d79e8479b70e7bd729bb743\loader-1.0.0\AndroidManifest.xml:17:1-22:12
MERGED from [androidx.customview:customview:1.0.0] C:\Users\Omar Gabriel\.gradle\caches\transforms-2\files-2.1\ef0bef029ab70f5fb29de019060cf5fd\customview-1.0.0\AndroidManifest.xml:17:1-22:12
MERGED from [androidx.core:core:1.1.0] C:\Users\Omar Gabriel\.gradle\caches\transforms-2\files-2.1\a528b13ac93e64cafa3d0480e2c93207\core-1.1.0\AndroidManifest.xml:17:1-26:12
MERGED from [androidx.lifecycle:lifecycle-runtime:2.2.0] C:\Users\Omar Gabriel\.gradle\caches\transforms-2\files-2.1\49ede1f7b9aa322a43288e9745adc2db\lifecycle-runtime-2.2.0\AndroidManifest.xml:17:1-24:12
MERGED from [androidx.savedstate:savedstate:1.0.0] C:\Users\Omar Gabriel\.gradle\caches\transforms-2\files-2.1\54d8b8735f730e83f07925f758092af3\savedstate-1.0.0\AndroidManifest.xml:17:1-24:12
MERGED from [androidx.lifecycle:lifecycle-livedata:2.0.0] C:\Users\Omar Gabriel\.gradle\caches\transforms-2\files-2.1\23edc849475fdda61367cb003f9b9f93\lifecycle-livedata-2.0.0\AndroidManifest.xml:17:1-22:12
MERGED from [androidx.lifecycle:lifecycle-livedata-core:2.0.0] C:\Users\Omar Gabriel\.gradle\caches\transforms-2\files-2.1\79f9d65ef8b1c716310f666473a689a7\lifecycle-livedata-core-2.0.0\AndroidManifest.xml:17:1-22:12
MERGED from [androidx.arch.core:core-runtime:2.0.0] C:\Users\Omar Gabriel\.gradle\caches\transforms-2\files-2.1\077300052aa327ee6fc9bbb0ce309b24\core-runtime-2.0.0\AndroidManifest.xml:17:1-22:12
MERGED from [androidx.versionedparcelable:versionedparcelable:1.1.0] C:\Users\Omar Gabriel\.gradle\caches\transforms-2\files-2.1\3a7eb299570065a3866b140e1a95969b\versionedparcelable-1.1.0\AndroidManifest.xml:17:1-27:12
MERGED from [androidx.lifecycle:lifecycle-viewmodel:2.1.0] C:\Users\Omar Gabriel\.gradle\caches\transforms-2\files-2.1\b80fad55c42c418cc210e235056767fb\lifecycle-viewmodel-2.1.0\AndroidManifest.xml:17:1-22:12
INJECTED from D:\Freelance Dev\ecomapp2version-main\android\app\src\debug\AndroidManifest.xml:1:1-7:12
INJECTED from D:\Freelance Dev\ecomapp2version-main\android\app\src\debug\AndroidManifest.xml:1:1-7:12
INJECTED from D:\Freelance Dev\ecomapp2version-main\android\app\src\debug\AndroidManifest.xml:1:1-7:12
	package
		ADDED from D:\Freelance Dev\ecomapp2version-main\android\app\src\main\AndroidManifest.xml:2:5-35
		INJECTED from D:\Freelance Dev\ecomapp2version-main\android\app\src\main\AndroidManifest.xml
		INJECTED from D:\Freelance Dev\ecomapp2version-main\android\app\src\debug\AndroidManifest.xml
	android:versionName
		INJECTED from D:\Freelance Dev\ecomapp2version-main\android\app\src\main\AndroidManifest.xml
		ADDED from D:\Freelance Dev\ecomapp2version-main\android\app\src\main\AndroidManifest.xml:1:1-53:12
		INJECTED from D:\Freelance Dev\ecomapp2version-main\android\app\src\debug\AndroidManifest.xml
	android:versionCode
		INJECTED from D:\Freelance Dev\ecomapp2version-main\android\app\src\main\AndroidManifest.xml
		ADDED from D:\Freelance Dev\ecomapp2version-main\android\app\src\main\AndroidManifest.xml:1:1-53:12
		INJECTED from D:\Freelance Dev\ecomapp2version-main\android\app\src\debug\AndroidManifest.xml
	xmlns:android
		ADDED from D:\Freelance Dev\ecomapp2version-main\android\app\src\main\AndroidManifest.xml:1:11-69
uses-permission#android.permission.INTERNET
ADDED from D:\Freelance Dev\ecomapp2version-main\android\app\src\main\AndroidManifest.xml:4:5-69
MERGED from D:\Freelance Dev\ecomapp2version-main\android\app\src\main\AndroidManifest.xml:4:5-69
MERGED from D:\Freelance Dev\ecomapp2version-main\android\app\src\main\AndroidManifest.xml:4:5-69
	android:name
		ADDED from D:\Freelance Dev\ecomapp2version-main\android\app\src\main\AndroidManifest.xml:4:22-66
application
ADDED from D:\Freelance Dev\ecomapp2version-main\android\app\src\main\AndroidManifest.xml:12:5-52:19
MERGED from [androidx.core:core:1.1.0] C:\Users\Omar Gabriel\.gradle\caches\transforms-2\files-2.1\a528b13ac93e64cafa3d0480e2c93207\core-1.1.0\AndroidManifest.xml:24:5-89
MERGED from [androidx.core:core:1.1.0] C:\Users\Omar Gabriel\.gradle\caches\transforms-2\files-2.1\a528b13ac93e64cafa3d0480e2c93207\core-1.1.0\AndroidManifest.xml:24:5-89
MERGED from [androidx.versionedparcelable:versionedparcelable:1.1.0] C:\Users\Omar Gabriel\.gradle\caches\transforms-2\files-2.1\3a7eb299570065a3866b140e1a95969b\versionedparcelable-1.1.0\AndroidManifest.xml:24:5-25:19
MERGED from [androidx.versionedparcelable:versionedparcelable:1.1.0] C:\Users\Omar Gabriel\.gradle\caches\transforms-2\files-2.1\3a7eb299570065a3866b140e1a95969b\versionedparcelable-1.1.0\AndroidManifest.xml:24:5-25:19
	android:appComponentFactory
		ADDED from [androidx.core:core:1.1.0] C:\Users\Omar Gabriel\.gradle\caches\transforms-2\files-2.1\a528b13ac93e64cafa3d0480e2c93207\core-1.1.0\AndroidManifest.xml:24:18-86
	android:label
		ADDED from D:\Freelance Dev\ecomapp2version-main\android\app\src\main\AndroidManifest.xml:14:9-33
	android:icon
		ADDED from D:\Freelance Dev\ecomapp2version-main\android\app\src\main\AndroidManifest.xml:16:9-43
	android:usesCleartextTraffic
		ADDED from D:\Freelance Dev\ecomapp2version-main\android\app\src\main\AndroidManifest.xml:15:9-44
	android:name
		ADDED from D:\Freelance Dev\ecomapp2version-main\android\app\src\main\AndroidManifest.xml:13:9-57
activity#com.example.ecom_app.MainActivity
ADDED from D:\Freelance Dev\ecomapp2version-main\android\app\src\main\AndroidManifest.xml:17:9-46:20
	android:launchMode
		ADDED from D:\Freelance Dev\ecomapp2version-main\android\app\src\main\AndroidManifest.xml:19:13-43
	android:hardwareAccelerated
		ADDED from D:\Freelance Dev\ecomapp2version-main\android\app\src\main\AndroidManifest.xml:22:13-47
	android:windowSoftInputMode
		ADDED from D:\Freelance Dev\ecomapp2version-main\android\app\src\main\AndroidManifest.xml:24:13-55
	android:configChanges
		ADDED from D:\Freelance Dev\ecomapp2version-main\android\app\src\main\AndroidManifest.xml:21:13-163
	android:theme
		ADDED from D:\Freelance Dev\ecomapp2version-main\android\app\src\main\AndroidManifest.xml:20:13-47
	android:name
		ADDED from D:\Freelance Dev\ecomapp2version-main\android\app\src\main\AndroidManifest.xml:18:13-41
meta-data#io.flutter.embedding.android.NormalTheme
ADDED from D:\Freelance Dev\ecomapp2version-main\android\app\src\main\AndroidManifest.xml:29:13-32:17
	android:resource
		ADDED from D:\Freelance Dev\ecomapp2version-main\android\app\src\main\AndroidManifest.xml:31:15-52
	android:name
		ADDED from D:\Freelance Dev\ecomapp2version-main\android\app\src\main\AndroidManifest.xml:30:15-70
meta-data#io.flutter.embedding.android.SplashScreenDrawable
ADDED from D:\Freelance Dev\ecomapp2version-main\android\app\src\main\AndroidManifest.xml:38:13-41:17
	android:resource
		ADDED from D:\Freelance Dev\ecomapp2version-main\android\app\src\main\AndroidManifest.xml:40:15-61
	android:name
		ADDED from D:\Freelance Dev\ecomapp2version-main\android\app\src\main\AndroidManifest.xml:39:15-79
intent-filter#action:name:android.intent.action.MAIN+category:name:android.intent.category.LAUNCHER
ADDED from D:\Freelance Dev\ecomapp2version-main\android\app\src\main\AndroidManifest.xml:42:13-45:29
action#android.intent.action.MAIN
ADDED from D:\Freelance Dev\ecomapp2version-main\android\app\src\main\AndroidManifest.xml:43:17-68
	android:name
		ADDED from D:\Freelance Dev\ecomapp2version-main\android\app\src\main\AndroidManifest.xml:43:25-66
category#android.intent.category.LAUNCHER
ADDED from D:\Freelance Dev\ecomapp2version-main\android\app\src\main\AndroidManifest.xml:44:17-76
	android:name
		ADDED from D:\Freelance Dev\ecomapp2version-main\android\app\src\main\AndroidManifest.xml:44:27-74
meta-data#flutterEmbedding
ADDED from D:\Freelance Dev\ecomapp2version-main\android\app\src\main\AndroidManifest.xml:49:9-51:33
	android:value
		ADDED from D:\Freelance Dev\ecomapp2version-main\android\app\src\main\AndroidManifest.xml:51:13-30
	android:name
		ADDED from D:\Freelance Dev\ecomapp2version-main\android\app\src\main\AndroidManifest.xml:50:13-44
uses-sdk
INJECTED from D:\Freelance Dev\ecomapp2version-main\android\app\src\main\AndroidManifest.xml reason: use-sdk injection requested
INJECTED from D:\Freelance Dev\ecomapp2version-main\android\app\src\main\AndroidManifest.xml
INJECTED from D:\Freelance Dev\ecomapp2version-main\android\app\src\main\AndroidManifest.xml
MERGED from [:shared_preferences] D:\Freelance Dev\ecomapp2version-main\build\shared_preferences\intermediates\library_manifest\debug\AndroidManifest.xml:5:5-44
MERGED from [:shared_preferences] D:\Freelance Dev\ecomapp2version-main\build\shared_preferences\intermediates\library_manifest\debug\AndroidManifest.xml:5:5-44
MERGED from [:sqflite] D:\Freelance Dev\ecomapp2version-main\build\sqflite\intermediates\library_manifest\debug\AndroidManifest.xml:5:5-44
MERGED from [:sqflite] D:\Freelance Dev\ecomapp2version-main\build\sqflite\intermediates\library_manifest\debug\AndroidManifest.xml:5:5-44
MERGED from [:path_provider] D:\Freelance Dev\ecomapp2version-main\build\path_provider\intermediates\library_manifest\debug\AndroidManifest.xml:5:5-44
MERGED from [:path_provider] D:\Freelance Dev\ecomapp2version-main\build\path_provider\intermediates\library_manifest\debug\AndroidManifest.xml:5:5-44
MERGED from [androidx.fragment:fragment:1.1.0] C:\Users\Omar Gabriel\.gradle\caches\transforms-2\files-2.1\0986d0d74b8a2c7da8161f6370fc7744\fragment-1.1.0\AndroidManifest.xml:20:5-22:41
MERGED from [androidx.fragment:fragment:1.1.0] C:\Users\Omar Gabriel\.gradle\caches\transforms-2\files-2.1\0986d0d74b8a2c7da8161f6370fc7744\fragment-1.1.0\AndroidManifest.xml:20:5-22:41
MERGED from [androidx.activity:activity:1.0.0] C:\Users\Omar Gabriel\.gradle\caches\transforms-2\files-2.1\615cab8ad6393a9c868d48761bbea666\activity-1.0.0\AndroidManifest.xml:20:5-22:41
MERGED from [androidx.activity:activity:1.0.0] C:\Users\Omar Gabriel\.gradle\caches\transforms-2\files-2.1\615cab8ad6393a9c868d48761bbea666\activity-1.0.0\AndroidManifest.xml:20:5-22:41
MERGED from [androidx.viewpager:viewpager:1.0.0] C:\Users\Omar Gabriel\.gradle\caches\transforms-2\files-2.1\28d99d5113324aa067757f8ca41a426f\viewpager-1.0.0\AndroidManifest.xml:20:5-44
MERGED from [androidx.viewpager:viewpager:1.0.0] C:\Users\Omar Gabriel\.gradle\caches\transforms-2\files-2.1\28d99d5113324aa067757f8ca41a426f\viewpager-1.0.0\AndroidManifest.xml:20:5-44
MERGED from [androidx.loader:loader:1.0.0] C:\Users\Omar Gabriel\.gradle\caches\transforms-2\files-2.1\e1bbce6b0d79e8479b70e7bd729bb743\loader-1.0.0\AndroidManifest.xml:20:5-44
MERGED from [androidx.loader:loader:1.0.0] C:\Users\Omar Gabriel\.gradle\caches\transforms-2\files-2.1\e1bbce6b0d79e8479b70e7bd729bb743\loader-1.0.0\AndroidManifest.xml:20:5-44
MERGED from [androidx.customview:customview:1.0.0] C:\Users\Omar Gabriel\.gradle\caches\transforms-2\files-2.1\ef0bef029ab70f5fb29de019060cf5fd\customview-1.0.0\AndroidManifest.xml:20:5-44
MERGED from [androidx.customview:customview:1.0.0] C:\Users\Omar Gabriel\.gradle\caches\transforms-2\files-2.1\ef0bef029ab70f5fb29de019060cf5fd\customview-1.0.0\AndroidManifest.xml:20:5-44
MERGED from [androidx.core:core:1.1.0] C:\Users\Omar Gabriel\.gradle\caches\transforms-2\files-2.1\a528b13ac93e64cafa3d0480e2c93207\core-1.1.0\AndroidManifest.xml:20:5-22:41
MERGED from [androidx.core:core:1.1.0] C:\Users\Omar Gabriel\.gradle\caches\transforms-2\files-2.1\a528b13ac93e64cafa3d0480e2c93207\core-1.1.0\AndroidManifest.xml:20:5-22:41
MERGED from [androidx.lifecycle:lifecycle-runtime:2.2.0] C:\Users\Omar Gabriel\.gradle\caches\transforms-2\files-2.1\49ede1f7b9aa322a43288e9745adc2db\lifecycle-runtime-2.2.0\AndroidManifest.xml:20:5-22:41
MERGED from [androidx.lifecycle:lifecycle-runtime:2.2.0] C:\Users\Omar Gabriel\.gradle\caches\transforms-2\files-2.1\49ede1f7b9aa322a43288e9745adc2db\lifecycle-runtime-2.2.0\AndroidManifest.xml:20:5-22:41
MERGED from [androidx.savedstate:savedstate:1.0.0] C:\Users\Omar Gabriel\.gradle\caches\transforms-2\files-2.1\54d8b8735f730e83f07925f758092af3\savedstate-1.0.0\AndroidManifest.xml:20:5-22:41
MERGED from [androidx.savedstate:savedstate:1.0.0] C:\Users\Omar Gabriel\.gradle\caches\transforms-2\files-2.1\54d8b8735f730e83f07925f758092af3\savedstate-1.0.0\AndroidManifest.xml:20:5-22:41
MERGED from [androidx.lifecycle:lifecycle-livedata:2.0.0] C:\Users\Omar Gabriel\.gradle\caches\transforms-2\files-2.1\23edc849475fdda61367cb003f9b9f93\lifecycle-livedata-2.0.0\AndroidManifest.xml:20:5-44
MERGED from [androidx.lifecycle:lifecycle-livedata:2.0.0] C:\Users\Omar Gabriel\.gradle\caches\transforms-2\files-2.1\23edc849475fdda61367cb003f9b9f93\lifecycle-livedata-2.0.0\AndroidManifest.xml:20:5-44
MERGED from [androidx.lifecycle:lifecycle-livedata-core:2.0.0] C:\Users\Omar Gabriel\.gradle\caches\transforms-2\files-2.1\79f9d65ef8b1c716310f666473a689a7\lifecycle-livedata-core-2.0.0\AndroidManifest.xml:20:5-44
MERGED from [androidx.lifecycle:lifecycle-livedata-core:2.0.0] C:\Users\Omar Gabriel\.gradle\caches\transforms-2\files-2.1\79f9d65ef8b1c716310f666473a689a7\lifecycle-livedata-core-2.0.0\AndroidManifest.xml:20:5-44
MERGED from [androidx.arch.core:core-runtime:2.0.0] C:\Users\Omar Gabriel\.gradle\caches\transforms-2\files-2.1\077300052aa327ee6fc9bbb0ce309b24\core-runtime-2.0.0\AndroidManifest.xml:20:5-44
MERGED from [androidx.arch.core:core-runtime:2.0.0] C:\Users\Omar Gabriel\.gradle\caches\transforms-2\files-2.1\077300052aa327ee6fc9bbb0ce309b24\core-runtime-2.0.0\AndroidManifest.xml:20:5-44
MERGED from [androidx.versionedparcelable:versionedparcelable:1.1.0] C:\Users\Omar Gabriel\.gradle\caches\transforms-2\files-2.1\3a7eb299570065a3866b140e1a95969b\versionedparcelable-1.1.0\AndroidManifest.xml:20:5-22:41
MERGED from [androidx.versionedparcelable:versionedparcelable:1.1.0] C:\Users\Omar Gabriel\.gradle\caches\transforms-2\files-2.1\3a7eb299570065a3866b140e1a95969b\versionedparcelable-1.1.0\AndroidManifest.xml:20:5-22:41
MERGED from [androidx.lifecycle:lifecycle-viewmodel:2.1.0] C:\Users\Omar Gabriel\.gradle\caches\transforms-2\files-2.1\b80fad55c42c418cc210e235056767fb\lifecycle-viewmodel-2.1.0\AndroidManifest.xml:20:5-44
MERGED from [androidx.lifecycle:lifecycle-viewmodel:2.1.0] C:\Users\Omar Gabriel\.gradle\caches\transforms-2\files-2.1\b80fad55c42c418cc210e235056767fb\lifecycle-viewmodel-2.1.0\AndroidManifest.xml:20:5-44
INJECTED from D:\Freelance Dev\ecomapp2version-main\android\app\src\debug\AndroidManifest.xml
INJECTED from D:\Freelance Dev\ecomapp2version-main\android\app\src\debug\AndroidManifest.xml
	android:targetSdkVersion
		INJECTED from D:\Freelance Dev\ecomapp2version-main\android\app\src\main\AndroidManifest.xml
		INJECTED from D:\Freelance Dev\ecomapp2version-main\android\app\src\debug\AndroidManifest.xml
	android:minSdkVersion
		INJECTED from D:\Freelance Dev\ecomapp2version-main\android\app\src\main\AndroidManifest.xml
		INJECTED from D:\Freelance Dev\ecomapp2version-main\android\app\src\debug\AndroidManifest.xml
